{
  "question": "What are your favorite cuisines?",
  "preferences": [
    {
      "name": "African",
      "parameter": "cuisine"
    },
    {
      "name": "American",
      "parameter": "cuisine"
    },
    {
      "name": "British",
      "parameter": "cuisine"
    },
    {
      "name": "Cajun",
      "parameter": "cuisine"
    },
    {
      "name": "Caribbean",
      "parameter": "cuisine"
    },
    {
      "name": "Chinese",
      "parameter": "cuisine"
    },
    {
      "name": "Eastern European",
      "parameter": "cuisine"
    },
    {
      "name": "European",
      "parameter": "cuisine"
    },
    {
      "name": "French",
      "parameter": "cuisine"
    },
    {
      "name": "German",
      "parameter": "cuisine"
    },
    {
      "name": "Greek",
      "parameter": "cuisine"
    },
    {
      "name": "Indian",
      "parameter": "cuisine"
    },
    {
      "name": "Irish",
      "parameter": "cuisine"
    },
    {
      "name": "Italian",
      "parameter": "cuisine"
    },
    {
      "name": "Japanese",
      "parameter": "cuisine"
    },
    {
      "name": "Jewish",
      "parameter": "cuisine"
    },
    {
      "name": "Korean",
      "parameter": "cuisine"
    },
    {
      "name": "Latin American",
      "parameter": "cuisine"
    },
    {
      "name": "Mediterranean",
      "parameter": "cuisine"
    },
    {
      "name": "Mexican",
      "parameter": "cuisine"
    },
    {
      "name": "Middle Eastern",
      "parameter": "cuisine"
    },
    {
      "name": "Nordic",
      "parameter": "cuisine"
    },
    {
      "name": "Southern",
      "parameter": "cuisine"
    },
    {
      "name": "Spanish",
      "parameter": "cuisine"
    },
    {
      "name": "Thai",
      "parameter": "cuisine"
    },
    {
      "name": "Vietnamese",
      "parameter": "cuisine"
    }
  ]
}