{
  "question": "Do you have any food allergies?",
  "preferences": [
    {
      "name": "Dairy",
      "parameter": "intolerances"
    },
    {
      "name": "Egg",
      "parameter": "intolerances"
    },
    {
      "name": "Gluten",
      "parameter": "intolerances"
    },
    {
      "name": "Grain",
      "parameter": "intolerances"
    },
    {
      "name": "Peanut",
      "parameter": "intolerances"
    },
    {
      "name": "Seafood",
      "parameter": "intolerances"
    },
    {
      "name": "Sesame",
      "parameter": "intolerances"
    },
    {
      "name": "Shellfish",
      "parameter": "intolerances"
    },
    {
      "name": "Soy",
      "parameter": "intolerances"
    },
    {
      "name": "Sulfite",
      "parameter": "intolerances"
    },
    {
      "name": "Tree Nut",
      "parameter": "intolerances"
    },
    {
      "name": "Wheat",
      "parameter": "intolerances"
    }
  ]
}